Manipulating and Summarizing Data
…
```r
starwars %>%
  # Center mass by sample average
* mutate(mass_gmc = mass - mean(mass, na.rm = T)) %>%
* group_by(gender) %>%
  # Center mass by group average
* mutate(mass_pmc = mass - mean(mass, na.rm = T)) %>%
  select(name, gender, mass, mass_gmc, mass_pmc)
```

```
## # A tibble: 87 x 5
## # Groups:   gender [3]
##    name               gender     mass mass_gmc mass_pmc
##    <chr>              <chr>     <dbl>    <dbl>    <dbl>
##  1 Luke Skywalker     masculine    77    -20.3   -29.1 
##  2 C-3PO              masculine    75    -22.3   -31.1 
##  3 R2-D2              masculine    32    -65.3   -74.1 
##  4 Darth Vader        masculine   136     38.7    29.9 
##  5 Leia Organa        feminine     49    -48.3    -5.69
##  6 Owen Lars          masculine   120     22.7    13.9 
##  7 Beru Whitesun lars feminine     75    -22.3    20.3 
##  8 R5-D4              masculine    32    -65.3   -74.1 
##  9 Biggs Darklighter  masculine    84    -13.3   -22.1 
## 10 Obi-Wan Kenobi     masculine    77    -20.3   -29.1 
## # … with 77 more rows
```
…
```r
starwars %>%
  filter(mass > mean(mass, na.rm = T) | eye_color %in% c("blue", "red"))
```

```
## # A tibble: 28 x 14
##    name    height  mass hair_color  skin_color eye_color birth_year sex   gender
##    <chr>    <int> <dbl> <chr>       <chr>      <chr>          <dbl> <chr> <chr> 
##  1 Luke S…    172    77 blond       fair       blue            19   male  mascu…
##  2 R2-D2       96    32 <NA>        white, bl… red             33   none  mascu…
##  3 Darth …    202   136 none        white      yellow          41.9 male  mascu…
##  4 Owen L…    178   120 brown, grey light      blue            52   male  mascu…
##  5 Beru W…    165    75 brown       light      blue            47   fema… femin…
##  6 R5-D4       97    32 <NA>        white, red red             NA   none  mascu…
##  7 Anakin…    188    84 blond       fair       blue            41.9 male  mascu…
##  8 Wilhuf…    180    NA auburn, gr… fair       blue            64   male  mascu…
##  9 Chewba…    228   112 brown       unknown    blue           200   male  mascu…
## 10 Jabba …    175  1358 <NA>        green-tan… orange         600   herm… mascu…
## # … with 18 more rows, and 5 more variables: homeworld <chr>, species <chr>,
## #   films <list>, vehicles <list>, starships <list>
```
…
